…
---

    Code
      fortify(dune_isomap, what = "network")
    Output
      # A tibble: 40 x 4
           xfrom    yfrom     xto      yto
           <dbl>    <dbl>   <dbl>    <dbl>
       1  0.187   0.00765  0.0124 -0.326  
       2 -0.169  -0.0466   0.0124 -0.326  
       3 -0.0455 -0.259    0.0124 -0.326  
       4 -0.169  -0.0466   0.187   0.00765
       5 -0.0455 -0.259    0.187   0.00765
       6  0.493   0.0773   0.187   0.00765
       7 -0.0455 -0.259   -0.169  -0.0466 
       8 -0.502  -0.0249  -0.169  -0.0466 
       9 -0.411  -0.330   -0.169  -0.0466 
      10 -0.437  -0.506   -0.169  -0.0466 
      # i 30 more rows
…
---

    Code
      tidy(dune_isomap, what = "network")
    Output
      # A tibble: 40 x 4
           xfrom    yfrom     xto      yto
           <dbl>    <dbl>   <dbl>    <dbl>
       1  0.187   0.00765  0.0124 -0.326  
       2 -0.169  -0.0466   0.0124 -0.326  
       3 -0.0455 -0.259    0.0124 -0.326  
       4 -0.169  -0.0466   0.187   0.00765
       5 -0.0455 -0.259    0.187   0.00765
       6  0.493   0.0773   0.187   0.00765
       7 -0.0455 -0.259   -0.169  -0.0466 
       8 -0.502  -0.0249  -0.169  -0.0466 
       9 -0.411  -0.330   -0.169  -0.0466 
      10 -0.437  -0.506   -0.169  -0.0466 
      # i 30 more rows
