Fortify extrapolated species richness of a species pool — fortify.poolaccum • ggvegan
…
    Author

    Gavin L. Simpson & Didzis Elferts

    Examples

library("vegan")
library("ggplot2")
data(BCI)
pool <- poolaccum(BCI)
df <- fortify(pool)
df
#> # A tibble: 240 × 6
#>    index  size richness lower upper std_dev
#>    <fct> <dbl>    <dbl> <dbl> <dbl>   <dbl>
#>  1 S         3     138.  124.  149.    6.43
#>  2 S         4     150.  137.  160     6.02
#>  3 S         5     159.  147.  169.    5.95
#>  4 S         6     166.  154.  175.    5.13
#>  5 S         7     171.  162.  181     5.11
#>  6 S         8     175.  167   185.    5.01
#>  7 S         9     179.  170   188.    4.81
#>  8 S        10     183.  173.  190     4.97
#>  9 S        11     185.  176.  195.    4.91
#> 10 S        12     188.  179.  198.    4.73
#> # ℹ 230 more rows
…
