Fortify a "prc" object — fortify.prc • ggvegan
…
    Author

    Gavin L. Simpson

    Examples

library("vegan")
data(pyrifos)
week <- gl(11, 12, labels=c(-4, -1, 0.1, 1, 2, 4, 8, 12, 15, 19, 24))
dose <- factor(rep(c(0.1, 0, 0, 0.9, 0, 44, 6, 0.1, 44, 0.9, 0, 6), 11))
ditch <- gl(12, 1, length=132)

pyrifos_prc <- prc(pyrifos, dose, week)
fortify(pyrifos_prc)
#> # A tibble: 222 × 5
#>    score  label   time  treatment response
#>    <fct>  <chr>   <fct> <fct>        <dbl>
#>  1 Sample 0.1|-4  -4    0.1        -0.133 
#>  2 Sample 0.1|-1  -1    0.1        -0.253 
#>  3 Sample 0.1|0.1 0.1   0.1        -0.188 
#>  4 Sample 0.1|1   1     0.1        -0.0748
#>  5 Sample 0.1|2   2     0.1        -0.386 
#>  6 Sample 0.1|4   4     0.1        -0.251 
#>  7 Sample 0.1|8   8     0.1        -0.149 
#>  8 Sample 0.1|12  12    0.1        -0.282 
#>  9 Sample 0.1|15  15    0.1        -0.206 
#> 10 Sample 0.1|19  19    0.1        -0.398 
#> # ℹ 212 more rows
…
